{
	"info": {
		"_postman_id": "d0bcf842-258b-4306-b0a2-973227bdf30c",
		"name": "App Tech",
		"schema": "https://schema.getpostman.com/json/collection/v2.1.0/collection.json"
	},
	"item": [
		{
			"name": "Register",
			"protocolProfileBehavior": {
				"disabledSystemHeaders": {
					"accept": true
				}
			},
			"request": {
				"method": "POST",
				"header": [
					{
						"key": "Accept",
						"value": "application/json",
						"type": "text"
					}
				],
				"body": {
					"mode": "urlencoded",
					"urlencoded": [
						{
							"key": "email",
							"value": "asd132@asd.comd",
							"type": "text"
						},
						{
							"key": "password",
							"value": "123123123",
							"type": "text"
						},
						{
							"key": "name",
							"value": "asdasd",
							"type": "text"
						},
						{
							"key": "password_confirmation",
							"value": "123123123",
							"type": "text"
						}
					]
				},
				"url": {
					"raw": "http://app.test/api/register?XDEBUG_SESSION_START=11861",
					"protocol": "http",
					"host": [
						"app",
						"test"
					],
					"path": [
						"api",
						"register"
					],
					"query": [
						{
							"key": "XDEBUG_SESSION_START",
							"value": "11861"
						}
					]
				}
			},
			"response": []
		},
		{
			"name": "Login",
			"protocolProfileBehavior": {
				"disabledSystemHeaders": {
					"accept": true
				}
			},
			"request": {
				"method": "POST",
				"header": [
					{
						"key": "Accept",
						"value": "application/json",
						"type": "text"
					}
				],
				"body": {
					"mode": "urlencoded",
					"urlencoded": [
						{
							"key": "email",
							"value": "asd@asd.com",
							"type": "text"
						},
						{
							"key": "password",
							"value": "123123123",
							"type": "text"
						},
						{
							"key": "",
							"value": "",
							"type": "text",
							"disabled": true
						},
						{
							"key": "",
							"value": "",
							"type": "text",
							"disabled": true
						}
					]
				},
				"url": {
					"raw": "http://app.test/api/login?XDEBUG_SESSION_START=11861",
					"protocol": "http",
					"host": [
						"app",
						"test"
					],
					"path": [
						"api",
						"login"
					],
					"query": [
						{
							"key": "XDEBUG_SESSION_START",
							"value": "11861"
						}
					]
				}
			},
			"response": []
		},
		{
			"name": "Get Notes",
			"protocolProfileBehavior": {
				"disableBodyPruning": true
			},
			"request": {
				"auth": {
					"type": "bearer",
					"bearer": [
						{
							"key": "token",
							"value": "13|5URSQO3bpzGfFPxzQh7nFMkM6guoI2LSHiqrHT1G",
							"type": "string"
						}
					]
				},
				"method": "GET",
				"header": [
					{
						"key": "Accept",
						"value": "application/json",
						"type": "text"
					}
				],
				"body": {
					"mode": "formdata",
					"formdata": [
						{
							"key": "mobile",
							"value": "905387975281",
							"type": "text",
							"disabled": true
						},
						{
							"key": "password",
							"value": "123456",
							"type": "text",
							"disabled": true
						}
					]
				},
				"url": {
					"raw": "http://app.test/api/notes?XDEBUG_SESSION_START=11861",
					"protocol": "http",
					"host": [
						"app",
						"test"
					],
					"path": [
						"api",
						"notes"
					],
					"query": [
						{
							"key": "XDEBUG_SESSION_START",
							"value": "11861"
						}
					]
				}
			},
			"response": []
		},
		{
			"name": "Store Note",
			"request": {
				"auth": {
					"type": "bearer",
					"bearer": [
						{
							"key": "token",
							"value": "13|5URSQO3bpzGfFPxzQh7nFMkM6guoI2LSHiqrHT1G",
							"type": "string"
						}
					]
				},
				"method": "POST",
				"header": [
					{
						"key": "Accept",
						"value": "application/json",
						"type": "text"
					}
				],
				"body": {
					"mode": "formdata",
					"formdata": [
						{
							"key": "note_title",
							"value": "asdasdqwesad ",
							"type": "text"
						},
						{
							"key": "description",
							"value": "asdasdas",
							"type": "text"
						},
						{
							"key": "image",
							"type": "file",
							"src": "/C:/Users/STC/Desktop/Videos/illo-laboriosam-pos-primary-1.png"
						}
					]
				},
				"url": {
					"raw": "http://app.test/api/store-note?XDEBUG_SESSION_START=11861",
					"protocol": "http",
					"host": [
						"app",
						"test"
					],
					"path": [
						"api",
						"store-note"
					],
					"query": [
						{
							"key": "XDEBUG_SESSION_START",
							"value": "11861"
						}
					]
				}
			},
			"response": []
		},
		{
			"name": "Get Note UnAuth",
			"protocolProfileBehavior": {
				"disableBodyPruning": true
			},
			"request": {
				"auth": {
					"type": "bearer",
					"bearer": [
						{
							"key": "token",
							"value": "13|5URSQO3bpzGfFPxzQh7nFMkM6guoI2LSHiqrHT1G",
							"type": "string"
						}
					]
				},
				"method": "GET",
				"header": [
					{
						"key": "Accept",
						"value": "application/json",
						"type": "text"
					}
				],
				"body": {
					"mode": "formdata",
					"formdata": [
						{
							"key": "mobile",
							"value": "905387975281",
							"type": "text",
							"disabled": true
						},
						{
							"key": "password",
							"value": "123456",
							"type": "text",
							"disabled": true
						}
					]
				},
				"url": {
					"raw": "http://app.test/api/note/asdasd/?XDEBUG_SESSION_START=11861",
					"protocol": "http",
					"host": [
						"app",
						"test"
					],
					"path": [
						"api",
						"note",
						"asdasd",
						""
					],
					"query": [
						{
							"key": "XDEBUG_SESSION_START",
							"value": "11861"
						},
						{
							"key": "",
							"value": "",
							"disabled": true
						}
					]
				}
			},
			"response": []
		},
		{
			"name": "Get Note edit",
			"protocolProfileBehavior": {
				"disableBodyPruning": true
			},
			"request": {
				"auth": {
					"type": "bearer",
					"bearer": [
						{
							"key": "token",
							"value": "13|5URSQO3bpzGfFPxzQh7nFMkM6guoI2LSHiqrHT1G",
							"type": "string"
						}
					]
				},
				"method": "GET",
				"header": [
					{
						"key": "Accept",
						"value": "application/json",
						"type": "text"
					}
				],
				"body": {
					"mode": "formdata",
					"formdata": [
						{
							"key": "mobile",
							"value": "905387975281",
							"type": "text",
							"disabled": true
						},
						{
							"key": "password",
							"value": "123456",
							"type": "text",
							"disabled": true
						}
					]
				},
				"url": {
					"raw": "http://app.test/api/edit/1?XDEBUG_SESSION_START=11861",
					"protocol": "http",
					"host": [
						"app",
						"test"
					],
					"path": [
						"api",
						"edit",
						"1"
					],
					"query": [
						{
							"key": "XDEBUG_SESSION_START",
							"value": "11861"
						},
						{
							"key": "",
							"value": "",
							"disabled": true
						}
					]
				}
			},
			"response": []
		},
		{
			"name": "Edit Note",
			"protocolProfileBehavior": {
				"disabledSystemHeaders": {
					"accept": true
				}
			},
			"request": {
				"auth": {
					"type": "bearer",
					"bearer": [
						{
							"key": "token",
							"value": "13|5URSQO3bpzGfFPxzQh7nFMkM6guoI2LSHiqrHT1G",
							"type": "string"
						}
					]
				},
				"method": "PUT",
				"header": [
					{
						"key": "Accept",
						"value": "application/json",
						"type": "text"
					}
				],
				"body": {
					"mode": "urlencoded",
					"urlencoded": [
						{
							"key": "note_title",
							"value": "asdasdasdqweq zxczxc ",
							"type": "text"
						},
						{
							"key": "description",
							"value": "wqeqwasd",
							"type": "text"
						}
					]
				},
				"url": {
					"raw": "http://app.test/api/update-note/2?XDEBUG_SESSION_START=11861",
					"protocol": "http",
					"host": [
						"app",
						"test"
					],
					"path": [
						"api",
						"update-note",
						"2"
					],
					"query": [
						{
							"key": "XDEBUG_SESSION_START",
							"value": "11861"
						}
					]
				}
			},
			"response": []
		},
		{
			"name": "Delete Note",
			"request": {
				"auth": {
					"type": "bearer",
					"bearer": [
						{
							"key": "token",
							"value": "13|5URSQO3bpzGfFPxzQh7nFMkM6guoI2LSHiqrHT1G",
							"type": "string"
						}
					]
				},
				"method": "DELETE",
				"header": [
					{
						"key": "Accept",
						"value": "application/json",
						"type": "text"
					}
				],
				"body": {
					"mode": "formdata",
					"formdata": [
						{
							"key": "note_title",
							"value": "ddd ddddd",
							"type": "text"
						},
						{
							"key": "description",
							"value": "asdasdasddd",
							"type": "text"
						},
						{
							"key": "image",
							"type": "file",
							"src": "/C:/Users/STC/Desktop/Videos/illo-laboriosam-pos-primary-1.png"
						},
						{
							"key": "",
							"value": "",
							"type": "text"
						}
					]
				},
				"url": {
					"raw": "http://app.test/api/delete-note/1?XDEBUG_SESSION_START=11861",
					"protocol": "http",
					"host": [
						"app",
						"test"
					],
					"path": [
						"api",
						"delete-note",
						"1"
					],
					"query": [
						{
							"key": "XDEBUG_SESSION_START",
							"value": "11861"
						}
					]
				}
			},
			"response": []
		}
	]
}